{
	"info": {
		"_postman_id": "85219fcb-417b-485e-bb8d-4fa04ea45535",
		"name": "apitechu11ed",
		"schema": "https://schema.getpostman.com/json/collection/v2.1.0/collection.json"
	},
	"item": [
		{
			"name": "USERS",
			"request": {
				"method": "GET",
				"header": [],
				"body": {
					"mode": "raw",
					"raw": ""
				},
				"url": {
					"raw": "localhost:3000/apitechu/v1/users?",
					"host": [
						"localhost"
					],
					"port": "3000",
					"path": [
						"apitechu",
						"v1",
						"users"
					],
					"query": [
						{
							"key": "$top",
							"value": "3",
							"disabled": true
						},
						{
							"key": "$count",
							"value": "true",
							"disabled": true
						}
					]
				}
			},
			"response": []
		},
		{
			"name": "USERS",
			"request": {
				"method": "POST",
				"header": [
					{
						"key": "first_name",
						"value": "Penas",
						"type": "text",
						"disabled": true
					},
					{
						"key": "last_name",
						"value": "Alberto",
						"type": "text",
						"disabled": true
					},
					{
						"key": "email",
						"value": "alberto@sinpostma.com",
						"type": "text",
						"disabled": true
					},
					{
						"key": "Content-Type",
						"name": "Content-Type",
						"value": "application/json",
						"type": "text"
					}
				],
				"body": {
					"mode": "raw",
					"raw": "{\n\"first_name\" : \"Vane\",\n\"last_name\" : \"Stark\",\n\"email\" : \"Tony@email.com\"\n}"
				},
				"url": {
					"raw": "localhost:3000/apitechu/v1/users",
					"host": [
						"localhost"
					],
					"port": "3000",
					"path": [
						"apitechu",
						"v1",
						"users"
					]
				}
			},
			"response": []
		},
		{
			"name": "MONSTRUO",
			"request": {
				"method": "POST",
				"header": [
					{
						"key": "header1",
						"value": "valueheader1",
						"type": "text"
					},
					{
						"key": "header2",
						"value": "valueheader2",
						"type": "text"
					},
					{
						"key": "Content-Type",
						"name": "Content-Type",
						"value": "application/json",
						"type": "text"
					}
				],
				"body": {
					"mode": "raw",
					"raw": "{\"mensaje\" : \"Ground control to Major Tom\"}"
				},
				"url": {
					"raw": "localhost:3000/apitechu/v1/monstruo/1/2?param1=valueparam1&param2=valueparam2",
					"host": [
						"localhost"
					],
					"port": "3000",
					"path": [
						"apitechu",
						"v1",
						"monstruo",
						"1",
						"2"
					],
					"query": [
						{
							"key": "param1",
							"value": "valueparam1"
						},
						{
							"key": "param2",
							"value": "valueparam2"
						}
					]
				}
			},
			"response": []
		},
		{
			"name": "USERS",
			"request": {
				"method": "DELETE",
				"header": [],
				"body": {
					"mode": "raw",
					"raw": ""
				},
				"url": {
					"raw": "localhost:3000/apitechu/v1/users/1",
					"host": [
						"localhost"
					],
					"port": "3000",
					"path": [
						"apitechu",
						"v1",
						"users",
						"1"
					]
				}
			},
			"response": []
		},
		{
			"name": "GET 2",
			"request": {
				"method": "GET",
				"header": [],
				"body": {
					"mode": "raw",
					"raw": ""
				},
				"url": {
					"raw": "localhost:3000/apitechu/v1/users/?",
					"host": [
						"localhost"
					],
					"port": "3000",
					"path": [
						"apitechu",
						"v1",
						"users",
						""
					],
					"query": [
						{
							"key": "$top",
							"value": "3",
							"disabled": true
						},
						{
							"key": "$count",
							"value": "true",
							"disabled": true
						}
					]
				}
			},
			"response": []
		},
		{
			"name": "LOGIN",
			"request": {
				"method": "POST",
				"header": [
					{
						"key": "first_name",
						"value": "Penas",
						"type": "text",
						"disabled": true
					},
					{
						"key": "last_name",
						"value": "Alberto",
						"type": "text",
						"disabled": true
					},
					{
						"key": "email",
						"value": "alberto@sinpostma.com",
						"type": "text",
						"disabled": true
					},
					{
						"key": "Content-Type",
						"name": "Content-Type",
						"value": "application/json",
						"type": "text"
					}
				],
				"body": {
					"mode": "raw",
					"raw": "{\n\"email\" : \"bheadeyro@163.com\",\n\"pass\" : \"sZP99kFFKrC\"\n}"
				},
				"url": {
					"raw": "localhost:3000/apitechu/v1/login",
					"host": [
						"localhost"
					],
					"port": "3000",
					"path": [
						"apitechu",
						"v1",
						"login"
					]
				}
			},
			"response": []
		},
		{
			"name": "LOGOUT",
			"request": {
				"method": "POST",
				"header": [
					{
						"key": "first_name",
						"value": "Penas",
						"type": "text",
						"disabled": true
					},
					{
						"key": "last_name",
						"value": "Alberto",
						"type": "text",
						"disabled": true
					},
					{
						"key": "email",
						"value": "alberto@sinpostma.com",
						"type": "text",
						"disabled": true
					},
					{
						"key": "Content-Type",
						"name": "Content-Type",
						"value": "application/json",
						"type": "text"
					}
				],
				"body": {
					"mode": "raw",
					"raw": "{\n\"email\" : \"bheadeyro@163.com\",\n\"pass\" : \"sZP99kFFKrC\"\n}"
				},
				"url": {
					"raw": "localhost:3000/apitechu/v1/logout/997",
					"host": [
						"localhost"
					],
					"port": "3000",
					"path": [
						"apitechu",
						"v1",
						"logout",
						"997"
					]
				}
			},
			"response": []
		},
		{
			"name": "APIREST MONGO",
			"request": {
				"method": "GET",
				"header": [],
				"body": {
					"mode": "raw",
					"raw": ""
				},
				"url": {
					"raw": "https://api.mlab.com/api/1/databases/apitechuvjm11ed/collections/user?q={\"$and\" : [{\"id\": {\"$gt\":15}},{\"id\": {\"$lt\":20}}]}&apiKey=5zTFmFoXB8txjvfwTLCXt6mCqPL-P_ea",
					"protocol": "https",
					"host": [
						"api",
						"mlab",
						"com"
					],
					"path": [
						"api",
						"1",
						"databases",
						"apitechuvjm11ed",
						"collections",
						"user"
					],
					"query": [
						{
							"key": "q",
							"value": "{\"email\" : \"sjillis1@utexas.edu\"}",
							"disabled": true
						},
						{
							"key": "q",
							"value": "{\"$and\" : [{\"id\": {\"$gt\":15}},{\"id\": {\"$lt\":20}}]}"
						},
						{
							"key": "f",
							"value": "{\"email\": 1, \"_id\":0}",
							"disabled": true
						},
						{
							"key": "s",
							"value": "{\"email\": 1}",
							"description": "Ordenados por orden alfabetico",
							"disabled": true
						},
						{
							"key": "l",
							"value": "3",
							"description": "Número de elementos",
							"disabled": true
						},
						{
							"key": "apiKey",
							"value": "5zTFmFoXB8txjvfwTLCXt6mCqPL-P_ea"
						}
					]
				}
			},
			"response": []
		},
		{
			"name": "USERSV2",
			"request": {
				"method": "GET",
				"header": [],
				"body": {
					"mode": "raw",
					"raw": ""
				},
				"url": {
					"raw": "localhost:3000/apitechu/v2/users/?",
					"host": [
						"localhost"
					],
					"port": "3000",
					"path": [
						"apitechu",
						"v2",
						"users",
						""
					],
					"query": [
						{
							"key": "$top",
							"value": "3",
							"disabled": true
						},
						{
							"key": "$count",
							"value": "true",
							"disabled": true
						}
					]
				}
			},
			"response": []
		},
		{
			"name": "USERSbyID V2",
			"request": {
				"method": "GET",
				"header": [],
				"body": {
					"mode": "raw",
					"raw": ""
				},
				"url": {
					"raw": "localhost:3000/apitechu/v2/users/3?",
					"host": [
						"localhost"
					],
					"port": "3000",
					"path": [
						"apitechu",
						"v2",
						"users",
						"3"
					],
					"query": [
						{
							"key": "$top",
							"value": "3",
							"disabled": true
						},
						{
							"key": "$count",
							"value": "true",
							"disabled": true
						}
					]
				}
			},
			"response": []
		}
	]
}